%YAML 1.1
%TAG !u! tag:unity3d.com,2011:
--- !u!74 &7400000
AnimationClip:
  m_ObjectHideFlags: 0
  m_CorrespondingSourceObject: {fileID: 0}
  m_PrefabInstance: {fileID: 0}
  m_PrefabAsset: {fileID: 0}
  m_Name: BoxAnimation
  serializedVersion: 6
  m_Legacy: 0
  m_Compressed: 0
  m_UseHighQualityCurve: 1
  m_RotationCurves: []
  m_CompressedRotationCurves: []
  m_EulerCurves: []
  m_PositionCurves: []
  m_ScaleCurves: []
  m_FloatCurves: []
  m_PPtrCurves:
  - curve:
    - time: 0
      value: {fileID: 21300000, guid: df4375fa28c0d4e7b9468bfc68bb88e2, type: 3}
    - time: 0.033333335
      value: {fileID: 21300000, guid: cb14df4599c024fea8afc1e8b6d32ba0, type: 3}
    - time: 0.06666667
      value: {fileID: 21300000, guid: 59ca8ca9d783b4e9caacc36b4d5e2194, type: 3}
    - time: 0.1
      value: {fileID: 21300000, guid: 25fb5bf836bde4ef48d66f915b62a4ed, type: 3}
    - time: 0.13333334
      value: {fileID: 21300000, guid: a02482df6b6124cec813a40d7a84a128, type: 3}
    - time: 0.16666667
      value: {fileID: 21300000, guid: a18a7d0431a104da8a09aac89e63d88e, type: 3}
    - time: 0.2
      value: {fileID: 21300000, guid: e39fec7a2bc1f4607a6827c019a37894, type: 3}
    - time: 0.23333333
      value: {fileID: 21300000, guid: 5a9a2e919dc9c4f3086edfefb56ef55b, type: 3}
    - time: 0.26666668
      value: {fileID: 21300000, guid: 0a495861a8af74e309f7feed35a8e8fb, type: 3}
    - time: 0.3
      value: {fileID: 21300000, guid: ee53c3454962f47f1bfc0a5dad0c2652, type: 3}
    - time: 0.33333334
      value: {fileID: 21300000, guid: 6b948b47eced340568bf19738f6ab765, type: 3}
    - time: 0.36666667
      value: {fileID: 21300000, guid: 62c519ee0beb549869ba5d29ab0acf67, type: 3}
    - time: 0.4
      value: {fileID: 21300000, guid: ef75c49e89afa4e498f8512e314012f0, type: 3}
    - time: 0.43333334
      value: {fileID: 21300000, guid: ea7711b1e0ae74944ac08b5afbdd3822, type: 3}
    - time: 0.46666667
      value: {fileID: 21300000, guid: e8bd54086cd8441be993fd0c7791cf9f, type: 3}
    - time: 0.5
      value: {fileID: 21300000, guid: b49d5d631a2ca4e9fba7a21570bb1d9c, type: 3}
    - time: 0.53333336
      value: {fileID: 21300000, guid: f5a2cc4a4851745e68d655ec2e1e138c, type: 3}
    - time: 0.56666666
      value: {fileID: 21300000, guid: 6096f270fb2784e93be95f169fcc3aec, type: 3}
    - time: 0.6
      value: {fileID: 21300000, guid: 867299bd192514a08b9dde97d9920838, type: 3}
    attribute: m_Sprite
    path: 
    classID: 212
    script: {fileID: 0}
  m_SampleRate: 30
  m_WrapMode: 0
  m_Bounds:
    m_Center: {x: 0, y: 0, z: 0}
    m_Extent: {x: 0, y: 0, z: 0}
  m_ClipBindingConstant:
    genericBindings:
    - serializedVersion: 2
      path: 0
      attribute: 0
      script: {fileID: 0}
      typeID: 212
      customType: 23
      isPPtrCurve: 1
    pptrCurveMapping:
    - {fileID: 21300000, guid: df4375fa28c0d4e7b9468bfc68bb88e2, type: 3}
    - {fileID: 21300000, guid: cb14df4599c024fea8afc1e8b6d32ba0, type: 3}
    - {fileID: 21300000, guid: 59ca8ca9d783b4e9caacc36b4d5e2194, type: 3}
    - {fileID: 21300000, guid: 25fb5bf836bde4ef48d66f915b62a4ed, type: 3}
    - {fileID: 21300000, guid: a02482df6b6124cec813a40d7a84a128, type: 3}
    - {fileID: 21300000, guid: a18a7d0431a104da8a09aac89e63d88e, type: 3}
    - {fileID: 21300000, guid: e39fec7a2bc1f4607a6827c019a37894, type: 3}
    - {fileID: 21300000, guid: 5a9a2e919dc9c4f3086edfefb56ef55b, type: 3}
    - {fileID: 21300000, guid: 0a495861a8af74e309f7feed35a8e8fb, type: 3}
    - {fileID: 21300000, guid: ee53c3454962f47f1bfc0a5dad0c2652, type: 3}
    - {fileID: 21300000, guid: 6b948b47eced340568bf19738f6ab765, type: 3}
    - {fileID: 21300000, guid: 62c519ee0beb549869ba5d29ab0acf67, type: 3}
    - {fileID: 21300000, guid: ef75c49e89afa4e498f8512e314012f0, type: 3}
    - {fileID: 21300000, guid: ea7711b1e0ae74944ac08b5afbdd3822, type: 3}
    - {fileID: 21300000, guid: e8bd54086cd8441be993fd0c7791cf9f, type: 3}
    - {fileID: 21300000, guid: b49d5d631a2ca4e9fba7a21570bb1d9c, type: 3}
    - {fileID: 21300000, guid: f5a2cc4a4851745e68d655ec2e1e138c, type: 3}
    - {fileID: 21300000, guid: 6096f270fb2784e93be95f169fcc3aec, type: 3}
    - {fileID: 21300000, guid: 867299bd192514a08b9dde97d9920838, type: 3}
  m_AnimationClipSettings:
    serializedVersion: 2
    m_AdditiveReferencePoseClip: {fileID: 0}
    m_AdditiveReferencePoseTime: 0
    m_StartTime: 0
    m_StopTime: 0.6333334
    m_OrientationOffsetY: 0
    m_Level: 0
    m_CycleOffset: 0
    m_HasAdditiveReferencePose: 0
    m_LoopTime: 1
    m_LoopBlend: 0
    m_LoopBlendOrientation: 0
    m_LoopBlendPositionY: 0
    m_LoopBlendPositionXZ: 0
    m_KeepOriginalOrientation: 0
    m_KeepOriginalPositionY: 1
    m_KeepOriginalPositionXZ: 0
    m_HeightFromFeet: 0
    m_Mirror: 0
  m_EditorCurves: []
  m_EulerEditorCurves: []
  m_HasGenericRootTransform: 0
  m_HasMotionFloatCurves: 0
  m_Events:
  - time: 0.33333334
    functionName: DropItems
    data: 
    objectReferenceParameter: {fileID: 0}
    floatParameter: 0
    intParameter: 0
    messageOptions: 0
  - time: 0.6
    functionName: DoDestroy
    data: 
    objectReferenceParameter: {fileID: 0}
    floatParameter: 0
    intParameter: 0
    messageOptions: 0
