%YAML 1.1
%TAG !u! tag:unity3d.com,2011:
--- !u!687078895 &4343727234628468602
SpriteAtlas:
  m_ObjectHideFlags: 0
  m_CorrespondingSourceObject: {fileID: 0}
  m_PrefabInstance: {fileID: 0}
  m_PrefabAsset: {fileID: 0}
  m_Name: AtlasUILife
  m_EditorData:
    serializedVersion: 2
    textureSettings:
      serializedVersion: 2
      anisoLevel: 1
      compressionQuality: 50
      maxTextureSize: 2048
      textureCompression: 0
      filterMode: 1
      generateMipMaps: 0
      readable: 0
      crunchedCompression: 0
      sRGB: 0
    platformSettings:
    - serializedVersion: 3
      m_BuildTarget: DefaultTexturePlatform
      m_MaxTextureSize: 2048
      m_ResizeAlgorithm: 0
      m_TextureFormat: -1
      m_TextureCompression: 0
      m_CompressionQuality: 50
      m_CrunchedCompression: 0
      m_AllowsAlphaSplitting: 0
      m_Overridden: 0
      m_AndroidETC2FallbackOverride: 0
      m_ForceMaximumCompressionQuality_BC6H_BC7: 0
    packingSettings:
      serializedVersion: 2
      padding: 4
      blockOffset: 1
      allowAlphaSplitting: 0
      enableRotation: 1
      enableTightPacking: 1
    variantMultiplier: 1
    packables:
    - {fileID: 21300142, guid: dbb3a789e490f4c0fbaf2454cf856f41, type: 3}
    - {fileID: 21300148, guid: dbb3a789e490f4c0fbaf2454cf856f41, type: 3}
    - {fileID: 21300150, guid: dbb3a789e490f4c0fbaf2454cf856f41, type: 3}
    - {fileID: 21300152, guid: dbb3a789e490f4c0fbaf2454cf856f41, type: 3}
    - {fileID: 21300154, guid: dbb3a789e490f4c0fbaf2454cf856f41, type: 3}
    - {fileID: 21300156, guid: dbb3a789e490f4c0fbaf2454cf856f41, type: 3}
    - {fileID: 21300158, guid: dbb3a789e490f4c0fbaf2454cf856f41, type: 3}
    - {fileID: 21300162, guid: dbb3a789e490f4c0fbaf2454cf856f41, type: 3}
    - {fileID: 21300164, guid: dbb3a789e490f4c0fbaf2454cf856f41, type: 3}
    - {fileID: 21300166, guid: dbb3a789e490f4c0fbaf2454cf856f41, type: 3}
    - {fileID: 21300188, guid: dbb3a789e490f4c0fbaf2454cf856f41, type: 3}
    totalSpriteSurfaceArea: 170000
    bindAsDefault: 1
  m_MasterAtlas: {fileID: 0}
  m_PackedSprites:
  - {fileID: 21300166, guid: dbb3a789e490f4c0fbaf2454cf856f41, type: 3}
  - {fileID: 21300164, guid: dbb3a789e490f4c0fbaf2454cf856f41, type: 3}
  - {fileID: 21300162, guid: dbb3a789e490f4c0fbaf2454cf856f41, type: 3}
  - {fileID: 21300158, guid: dbb3a789e490f4c0fbaf2454cf856f41, type: 3}
  - {fileID: 21300156, guid: dbb3a789e490f4c0fbaf2454cf856f41, type: 3}
  - {fileID: 21300154, guid: dbb3a789e490f4c0fbaf2454cf856f41, type: 3}
  - {fileID: 21300152, guid: dbb3a789e490f4c0fbaf2454cf856f41, type: 3}
  - {fileID: 21300150, guid: dbb3a789e490f4c0fbaf2454cf856f41, type: 3}
  - {fileID: 21300148, guid: dbb3a789e490f4c0fbaf2454cf856f41, type: 3}
  - {fileID: 21300142, guid: dbb3a789e490f4c0fbaf2454cf856f41, type: 3}
  - {fileID: 21300188, guid: dbb3a789e490f4c0fbaf2454cf856f41, type: 3}
  m_PackedSpriteNamesToIndex:
  - life9
  - life8
  - life7
  - life6
  - life5
  - life4
  - life3
  - life2
  - life1
  - life0
  - life10
  m_Tag: AtlasUILife
  m_IsVariant: 0
