%YAML 1.1
%TAG !u! tag:unity3d.com,2011:
--- !u!74 &7400000
AnimationClip:
  m_ObjectHideFlags: 0
  m_CorrespondingSourceObject: {fileID: 0}
  m_PrefabInstance: {fileID: 0}
  m_PrefabAsset: {fileID: 0}
  m_Name: mushroom3
  serializedVersion: 6
  m_Legacy: 0
  m_Compressed: 0
  m_UseHighQualityCurve: 1
  m_RotationCurves: []
  m_CompressedRotationCurves: []
  m_EulerCurves: []
  m_PositionCurves: []
  m_ScaleCurves: []
  m_FloatCurves: []
  m_PPtrCurves:
  - curve:
    - time: 0
      value: {fileID: 21300000, guid: 79bbfe2e59f304435a336bbe7dccedba, type: 3}
    - time: 0.06666667
      value: {fileID: 21300000, guid: 666e3df1d0e3d4b70a5429c839ba8e96, type: 3}
    - time: 0.13333334
      value: {fileID: 21300000, guid: 2307b0560aea04def8a184a446b75848, type: 3}
    - time: 0.2
      value: {fileID: 21300000, guid: 0d2640878c2704fbab64197f31a77cf2, type: 3}
    - time: 0.26666668
      value: {fileID: 21300000, guid: 22eee9b14ae3b43b0b6d78044d8cf3db, type: 3}
    - time: 0.33333334
      value: {fileID: 21300000, guid: 54c0173b295684b73a2252009b6e49b5, type: 3}
    - time: 0.4
      value: {fileID: 21300000, guid: d4416d7c742d8470db970dccd05490f8, type: 3}
    - time: 0.46666667
      value: {fileID: 21300000, guid: 3f7a62940d90b46f9bd705d86ce75c82, type: 3}
    - time: 0.53333336
      value: {fileID: 21300000, guid: a3df7271e4f6e486eb20e5447fc96d5b, type: 3}
    - time: 0.6
      value: {fileID: 21300000, guid: 45392ce7875ac460aa659fb67cb4553d, type: 3}
    - time: 0.6666667
      value: {fileID: 21300000, guid: 616b4381b07b64b1cb027997bcb50f6d, type: 3}
    - time: 0.73333335
      value: {fileID: 21300000, guid: 04f6375bae707408aa4379fbd2db296b, type: 3}
    - time: 0.8
      value: {fileID: 21300000, guid: 52b953d7b71ac4b1ea6fa1f2fbdf9453, type: 3}
    - time: 0.8666667
      value: {fileID: 21300000, guid: c30a73c0010b843d699ab3924f433c34, type: 3}
    - time: 0.93333334
      value: {fileID: 21300000, guid: dca600766e9f942b4a78092a45abcb51, type: 3}
    - time: 1
      value: {fileID: 21300000, guid: 05d127671e9d14c9fa7550cb578e007b, type: 3}
    - time: 1.0666667
      value: {fileID: 21300000, guid: 5b314ae7e178b47fba297bfa906e1747, type: 3}
    - time: 1.1333333
      value: {fileID: 21300000, guid: 0c68ebbfd1f844a39a2e5585de6950c2, type: 3}
    - time: 1.2
      value: {fileID: 21300000, guid: e542677436ae04a42ae1f3f2098b4b5c, type: 3}
    - time: 1.2666667
      value: {fileID: 21300000, guid: 9caf9e048b74b43999eeb89fda7961ce, type: 3}
    - time: 1.3333334
      value: {fileID: 21300000, guid: 9ffeffab5dd3449f2a6809d23cb14d20, type: 3}
    - time: 1.4
      value: {fileID: 21300000, guid: d9ee2ed34e69c4bccb75ab813d4a5434, type: 3}
    - time: 1.4666667
      value: {fileID: 21300000, guid: 5c6770e885b74479fb29add3b62d78b0, type: 3}
    - time: 1.5333333
      value: {fileID: 21300000, guid: 971462d4b02734fa593e2c8fb94c0fce, type: 3}
    - time: 1.6
      value: {fileID: 21300000, guid: bcb083cac1c384a0db164c6e4ecb5d91, type: 3}
    attribute: m_Sprite
    path: 
    classID: 212
    script: {fileID: 0}
  m_SampleRate: 15
  m_WrapMode: 0
  m_Bounds:
    m_Center: {x: 0, y: 0, z: 0}
    m_Extent: {x: 0, y: 0, z: 0}
  m_ClipBindingConstant:
    genericBindings:
    - serializedVersion: 2
      path: 0
      attribute: 0
      script: {fileID: 0}
      typeID: 212
      customType: 23
      isPPtrCurve: 1
    pptrCurveMapping:
    - {fileID: 21300000, guid: 79bbfe2e59f304435a336bbe7dccedba, type: 3}
    - {fileID: 21300000, guid: 666e3df1d0e3d4b70a5429c839ba8e96, type: 3}
    - {fileID: 21300000, guid: 2307b0560aea04def8a184a446b75848, type: 3}
    - {fileID: 21300000, guid: 0d2640878c2704fbab64197f31a77cf2, type: 3}
    - {fileID: 21300000, guid: 22eee9b14ae3b43b0b6d78044d8cf3db, type: 3}
    - {fileID: 21300000, guid: 54c0173b295684b73a2252009b6e49b5, type: 3}
    - {fileID: 21300000, guid: d4416d7c742d8470db970dccd05490f8, type: 3}
    - {fileID: 21300000, guid: 3f7a62940d90b46f9bd705d86ce75c82, type: 3}
    - {fileID: 21300000, guid: a3df7271e4f6e486eb20e5447fc96d5b, type: 3}
    - {fileID: 21300000, guid: 45392ce7875ac460aa659fb67cb4553d, type: 3}
    - {fileID: 21300000, guid: 616b4381b07b64b1cb027997bcb50f6d, type: 3}
    - {fileID: 21300000, guid: 04f6375bae707408aa4379fbd2db296b, type: 3}
    - {fileID: 21300000, guid: 52b953d7b71ac4b1ea6fa1f2fbdf9453, type: 3}
    - {fileID: 21300000, guid: c30a73c0010b843d699ab3924f433c34, type: 3}
    - {fileID: 21300000, guid: dca600766e9f942b4a78092a45abcb51, type: 3}
    - {fileID: 21300000, guid: 05d127671e9d14c9fa7550cb578e007b, type: 3}
    - {fileID: 21300000, guid: 5b314ae7e178b47fba297bfa906e1747, type: 3}
    - {fileID: 21300000, guid: 0c68ebbfd1f844a39a2e5585de6950c2, type: 3}
    - {fileID: 21300000, guid: e542677436ae04a42ae1f3f2098b4b5c, type: 3}
    - {fileID: 21300000, guid: 9caf9e048b74b43999eeb89fda7961ce, type: 3}
    - {fileID: 21300000, guid: 9ffeffab5dd3449f2a6809d23cb14d20, type: 3}
    - {fileID: 21300000, guid: d9ee2ed34e69c4bccb75ab813d4a5434, type: 3}
    - {fileID: 21300000, guid: 5c6770e885b74479fb29add3b62d78b0, type: 3}
    - {fileID: 21300000, guid: 971462d4b02734fa593e2c8fb94c0fce, type: 3}
    - {fileID: 21300000, guid: bcb083cac1c384a0db164c6e4ecb5d91, type: 3}
  m_AnimationClipSettings:
    serializedVersion: 2
    m_AdditiveReferencePoseClip: {fileID: 0}
    m_AdditiveReferencePoseTime: 0
    m_StartTime: 0
    m_StopTime: 1.6666667
    m_OrientationOffsetY: 0
    m_Level: 0
    m_CycleOffset: 0
    m_HasAdditiveReferencePose: 0
    m_LoopTime: 1
    m_LoopBlend: 0
    m_LoopBlendOrientation: 0
    m_LoopBlendPositionY: 0
    m_LoopBlendPositionXZ: 0
    m_KeepOriginalOrientation: 0
    m_KeepOriginalPositionY: 1
    m_KeepOriginalPositionXZ: 0
    m_HeightFromFeet: 0
    m_Mirror: 0
  m_EditorCurves: []
  m_EulerEditorCurves: []
  m_HasGenericRootTransform: 0
  m_HasMotionFloatCurves: 0
  m_Events: []
