%YAML 1.1
%TAG !u! tag:unity3d.com,2011:
--- !u!74 &7400000
AnimationClip:
  m_ObjectHideFlags: 0
  m_CorrespondingSourceObject: {fileID: 0}
  m_PrefabInstance: {fileID: 0}
  m_PrefabAsset: {fileID: 0}
  m_Name: mushroom6
  serializedVersion: 6
  m_Legacy: 0
  m_Compressed: 0
  m_UseHighQualityCurve: 1
  m_RotationCurves: []
  m_CompressedRotationCurves: []
  m_EulerCurves: []
  m_PositionCurves: []
  m_ScaleCurves: []
  m_FloatCurves: []
  m_PPtrCurves:
  - curve:
    - time: 0
      value: {fileID: 21300000, guid: 3bd5fe4bab74041d28a13f290d99b013, type: 3}
    - time: 0.06666667
      value: {fileID: 21300000, guid: 8d386228606074887a6ea551e5121822, type: 3}
    - time: 0.13333334
      value: {fileID: 21300000, guid: 4e422520ba1624628adc4bf2357225f6, type: 3}
    - time: 0.2
      value: {fileID: 21300000, guid: b69601312391147f58ea81f21ef827ca, type: 3}
    - time: 0.26666668
      value: {fileID: 21300000, guid: b36b0629ae77949b396131c1e5c73af9, type: 3}
    - time: 0.33333334
      value: {fileID: 21300000, guid: ddaaa4d7201b3443ba94330d7417e0b7, type: 3}
    - time: 0.4
      value: {fileID: 21300000, guid: 3e9aa63fd564941eb83022a7acff8bd2, type: 3}
    - time: 0.46666667
      value: {fileID: 21300000, guid: 7a8dc4762d2c2446ca4c54e602166e34, type: 3}
    - time: 0.53333336
      value: {fileID: 21300000, guid: 55b6da6c685dd4200b435edeb0043b03, type: 3}
    - time: 0.6
      value: {fileID: 21300000, guid: cd34f1175c9a14372b9e28b3dc2fee0c, type: 3}
    - time: 0.6666667
      value: {fileID: 21300000, guid: 7e5f1e9b667ee4f6abe81408c23b23f5, type: 3}
    - time: 0.73333335
      value: {fileID: 21300000, guid: 29e9e324c02bb476d9ce1dbaf561cf06, type: 3}
    - time: 0.8
      value: {fileID: 21300000, guid: 040e548aded1b49e7800895a624329e3, type: 3}
    - time: 0.8666667
      value: {fileID: 21300000, guid: 80fdcd36e2ae94e7fb6a831a368766c7, type: 3}
    - time: 0.93333334
      value: {fileID: 21300000, guid: 4073889b51dca48539465a8cb4c498bb, type: 3}
    - time: 1
      value: {fileID: 21300000, guid: 86825768203cb43cbbb30dd58449eaf6, type: 3}
    - time: 1.0666667
      value: {fileID: 21300000, guid: 9dafffc176f4d4c0db07002938ba9cc1, type: 3}
    - time: 1.1333333
      value: {fileID: 21300000, guid: 48038963d4c014e24b5a617043e75920, type: 3}
    - time: 1.2
      value: {fileID: 21300000, guid: 77fbe6717b10d4f88b0781f63d72fd33, type: 3}
    - time: 1.2666667
      value: {fileID: 21300000, guid: 16fa1cd4d99b84fd8b1a28f5eea84fa7, type: 3}
    - time: 1.3333334
      value: {fileID: 21300000, guid: c0509c31b6081474991fef52586f4257, type: 3}
    - time: 1.4
      value: {fileID: 21300000, guid: b373b975897c14f368f27f9d5c924479, type: 3}
    - time: 1.4666667
      value: {fileID: 21300000, guid: f6b18fba141584592862e7a428c033ea, type: 3}
    - time: 1.5333333
      value: {fileID: 21300000, guid: 3fd2628d7456144fc91aa1041da5e30a, type: 3}
    - time: 1.6
      value: {fileID: 21300000, guid: 238b80dbc4f804e1cb4e1a5af220687f, type: 3}
    - time: 1.6666666
      value: {fileID: 21300000, guid: c2975b54183c04b33ac83817d7256c1d, type: 3}
    - time: 1.7333333
      value: {fileID: 21300000, guid: 4a44fc10a3a93451999ceea9a47294d3, type: 3}
    attribute: m_Sprite
    path: 
    classID: 212
    script: {fileID: 0}
  m_SampleRate: 15
  m_WrapMode: 0
  m_Bounds:
    m_Center: {x: 0, y: 0, z: 0}
    m_Extent: {x: 0, y: 0, z: 0}
  m_ClipBindingConstant:
    genericBindings:
    - serializedVersion: 2
      path: 0
      attribute: 0
      script: {fileID: 0}
      typeID: 212
      customType: 23
      isPPtrCurve: 1
    pptrCurveMapping:
    - {fileID: 21300000, guid: 3bd5fe4bab74041d28a13f290d99b013, type: 3}
    - {fileID: 21300000, guid: 8d386228606074887a6ea551e5121822, type: 3}
    - {fileID: 21300000, guid: 4e422520ba1624628adc4bf2357225f6, type: 3}
    - {fileID: 21300000, guid: b69601312391147f58ea81f21ef827ca, type: 3}
    - {fileID: 21300000, guid: b36b0629ae77949b396131c1e5c73af9, type: 3}
    - {fileID: 21300000, guid: ddaaa4d7201b3443ba94330d7417e0b7, type: 3}
    - {fileID: 21300000, guid: 3e9aa63fd564941eb83022a7acff8bd2, type: 3}
    - {fileID: 21300000, guid: 7a8dc4762d2c2446ca4c54e602166e34, type: 3}
    - {fileID: 21300000, guid: 55b6da6c685dd4200b435edeb0043b03, type: 3}
    - {fileID: 21300000, guid: cd34f1175c9a14372b9e28b3dc2fee0c, type: 3}
    - {fileID: 21300000, guid: 7e5f1e9b667ee4f6abe81408c23b23f5, type: 3}
    - {fileID: 21300000, guid: 29e9e324c02bb476d9ce1dbaf561cf06, type: 3}
    - {fileID: 21300000, guid: 040e548aded1b49e7800895a624329e3, type: 3}
    - {fileID: 21300000, guid: 80fdcd36e2ae94e7fb6a831a368766c7, type: 3}
    - {fileID: 21300000, guid: 4073889b51dca48539465a8cb4c498bb, type: 3}
    - {fileID: 21300000, guid: 86825768203cb43cbbb30dd58449eaf6, type: 3}
    - {fileID: 21300000, guid: 9dafffc176f4d4c0db07002938ba9cc1, type: 3}
    - {fileID: 21300000, guid: 48038963d4c014e24b5a617043e75920, type: 3}
    - {fileID: 21300000, guid: 77fbe6717b10d4f88b0781f63d72fd33, type: 3}
    - {fileID: 21300000, guid: 16fa1cd4d99b84fd8b1a28f5eea84fa7, type: 3}
    - {fileID: 21300000, guid: c0509c31b6081474991fef52586f4257, type: 3}
    - {fileID: 21300000, guid: b373b975897c14f368f27f9d5c924479, type: 3}
    - {fileID: 21300000, guid: f6b18fba141584592862e7a428c033ea, type: 3}
    - {fileID: 21300000, guid: 3fd2628d7456144fc91aa1041da5e30a, type: 3}
    - {fileID: 21300000, guid: 238b80dbc4f804e1cb4e1a5af220687f, type: 3}
    - {fileID: 21300000, guid: c2975b54183c04b33ac83817d7256c1d, type: 3}
    - {fileID: 21300000, guid: 4a44fc10a3a93451999ceea9a47294d3, type: 3}
  m_AnimationClipSettings:
    serializedVersion: 2
    m_AdditiveReferencePoseClip: {fileID: 0}
    m_AdditiveReferencePoseTime: 0
    m_StartTime: 0
    m_StopTime: 1.8000001
    m_OrientationOffsetY: 0
    m_Level: 0
    m_CycleOffset: 0
    m_HasAdditiveReferencePose: 0
    m_LoopTime: 1
    m_LoopBlend: 0
    m_LoopBlendOrientation: 0
    m_LoopBlendPositionY: 0
    m_LoopBlendPositionXZ: 0
    m_KeepOriginalOrientation: 0
    m_KeepOriginalPositionY: 1
    m_KeepOriginalPositionXZ: 0
    m_HeightFromFeet: 0
    m_Mirror: 0
  m_EditorCurves: []
  m_EulerEditorCurves: []
  m_HasGenericRootTransform: 0
  m_HasMotionFloatCurves: 0
  m_Events: []
