%YAML 1.1
%TAG !u! tag:unity3d.com,2011:
--- !u!74 &7400000
AnimationClip:
  m_ObjectHideFlags: 0
  m_CorrespondingSourceObject: {fileID: 0}
  m_PrefabInstance: {fileID: 0}
  m_PrefabAsset: {fileID: 0}
  m_Name: mushroom4
  serializedVersion: 6
  m_Legacy: 0
  m_Compressed: 0
  m_UseHighQualityCurve: 1
  m_RotationCurves: []
  m_CompressedRotationCurves: []
  m_EulerCurves: []
  m_PositionCurves: []
  m_ScaleCurves: []
  m_FloatCurves: []
  m_PPtrCurves:
  - curve:
    - time: 0
      value: {fileID: 21300000, guid: 2aabb8b0bfc464a6fb17812c2f5e11e3, type: 3}
    - time: 0.06666667
      value: {fileID: 21300000, guid: dcf961b07e79d4dad82ebd8767bdd5c6, type: 3}
    - time: 0.13333334
      value: {fileID: 21300000, guid: 0bae5d83b4a4c40889a1295c6cda25fc, type: 3}
    - time: 0.2
      value: {fileID: 21300000, guid: ac19e3a257c37451e9adf5c0872272ea, type: 3}
    - time: 0.26666668
      value: {fileID: 21300000, guid: 833d706f610734d3c8bbd2f80614017a, type: 3}
    - time: 0.33333334
      value: {fileID: 21300000, guid: 0cf4b428b9a284e0a80f8557c963ce75, type: 3}
    - time: 0.4
      value: {fileID: 21300000, guid: b5ed952eee5e6497694dba5e28240128, type: 3}
    - time: 0.46666667
      value: {fileID: 21300000, guid: 62415f2b240414e72bd9148688bb3eeb, type: 3}
    - time: 0.53333336
      value: {fileID: 21300000, guid: 92a6c03b1d7124fc18cac63457823b83, type: 3}
    - time: 0.6
      value: {fileID: 21300000, guid: be4e2ad906a66450b9e055d6de655ff9, type: 3}
    - time: 0.6666667
      value: {fileID: 21300000, guid: 30aa3941b2e4e4ff482871c08ad424b7, type: 3}
    - time: 0.73333335
      value: {fileID: 21300000, guid: 27b8b27c4d64741cc98470a427f43e0c, type: 3}
    - time: 0.8
      value: {fileID: 21300000, guid: e36d8dcb2e2424fd0b84e45354528a1c, type: 3}
    - time: 0.8666667
      value: {fileID: 21300000, guid: b07249a43467e45feadf61c2a348b427, type: 3}
    - time: 0.93333334
      value: {fileID: 21300000, guid: 330d55bc05bf14a58a6f1ebc43f85ae0, type: 3}
    - time: 1
      value: {fileID: 21300000, guid: 9fbc96a14c30948a8953d4e7c6723418, type: 3}
    - time: 1.0666667
      value: {fileID: 21300000, guid: a6b51f707c0fb4c5ab7dde5eb89318a0, type: 3}
    - time: 1.1333333
      value: {fileID: 21300000, guid: ca746d1c2f85d4601b0f45e09619e223, type: 3}
    - time: 1.2
      value: {fileID: 21300000, guid: 31611e0b03781437391ac0ff3262e8cb, type: 3}
    - time: 1.2666667
      value: {fileID: 21300000, guid: 77b406677fb2c4dca8c066000c8ad5ca, type: 3}
    - time: 1.3333334
      value: {fileID: 21300000, guid: 0fa4d7340e712412094648d0381ce469, type: 3}
    - time: 1.4
      value: {fileID: 21300000, guid: 6dbec973a3062468cba290b16f08eed2, type: 3}
    - time: 1.4666667
      value: {fileID: 21300000, guid: ba5ebc2cf84b8480abe97fcd75b30fc0, type: 3}
    - time: 1.5333333
      value: {fileID: 21300000, guid: e19d06995b2bf4111a665029fa09398c, type: 3}
    - time: 1.6
      value: {fileID: 21300000, guid: 8510b7093431641b28f9e9443ed01d5d, type: 3}
    - time: 1.6666666
      value: {fileID: 21300000, guid: 4a6326646bf7a4f56a20643de85d2d65, type: 3}
    - time: 1.7333333
      value: {fileID: 21300000, guid: 153fc58a03ef742fc9d25a12f18e864e, type: 3}
    - time: 1.8
      value: {fileID: 21300000, guid: 09caba655cbff48b2894e7cf710674a3, type: 3}
    - time: 1.8666667
      value: {fileID: 21300000, guid: 8bc33d00b939242eab8fa2515e2397a6, type: 3}
    attribute: m_Sprite
    path: 
    classID: 212
    script: {fileID: 0}
  m_SampleRate: 15
  m_WrapMode: 0
  m_Bounds:
    m_Center: {x: 0, y: 0, z: 0}
    m_Extent: {x: 0, y: 0, z: 0}
  m_ClipBindingConstant:
    genericBindings:
    - serializedVersion: 2
      path: 0
      attribute: 0
      script: {fileID: 0}
      typeID: 212
      customType: 23
      isPPtrCurve: 1
    pptrCurveMapping:
    - {fileID: 21300000, guid: 2aabb8b0bfc464a6fb17812c2f5e11e3, type: 3}
    - {fileID: 21300000, guid: dcf961b07e79d4dad82ebd8767bdd5c6, type: 3}
    - {fileID: 21300000, guid: 0bae5d83b4a4c40889a1295c6cda25fc, type: 3}
    - {fileID: 21300000, guid: ac19e3a257c37451e9adf5c0872272ea, type: 3}
    - {fileID: 21300000, guid: 833d706f610734d3c8bbd2f80614017a, type: 3}
    - {fileID: 21300000, guid: 0cf4b428b9a284e0a80f8557c963ce75, type: 3}
    - {fileID: 21300000, guid: b5ed952eee5e6497694dba5e28240128, type: 3}
    - {fileID: 21300000, guid: 62415f2b240414e72bd9148688bb3eeb, type: 3}
    - {fileID: 21300000, guid: 92a6c03b1d7124fc18cac63457823b83, type: 3}
    - {fileID: 21300000, guid: be4e2ad906a66450b9e055d6de655ff9, type: 3}
    - {fileID: 21300000, guid: 30aa3941b2e4e4ff482871c08ad424b7, type: 3}
    - {fileID: 21300000, guid: 27b8b27c4d64741cc98470a427f43e0c, type: 3}
    - {fileID: 21300000, guid: e36d8dcb2e2424fd0b84e45354528a1c, type: 3}
    - {fileID: 21300000, guid: b07249a43467e45feadf61c2a348b427, type: 3}
    - {fileID: 21300000, guid: 330d55bc05bf14a58a6f1ebc43f85ae0, type: 3}
    - {fileID: 21300000, guid: 9fbc96a14c30948a8953d4e7c6723418, type: 3}
    - {fileID: 21300000, guid: a6b51f707c0fb4c5ab7dde5eb89318a0, type: 3}
    - {fileID: 21300000, guid: ca746d1c2f85d4601b0f45e09619e223, type: 3}
    - {fileID: 21300000, guid: 31611e0b03781437391ac0ff3262e8cb, type: 3}
    - {fileID: 21300000, guid: 77b406677fb2c4dca8c066000c8ad5ca, type: 3}
    - {fileID: 21300000, guid: 0fa4d7340e712412094648d0381ce469, type: 3}
    - {fileID: 21300000, guid: 6dbec973a3062468cba290b16f08eed2, type: 3}
    - {fileID: 21300000, guid: ba5ebc2cf84b8480abe97fcd75b30fc0, type: 3}
    - {fileID: 21300000, guid: e19d06995b2bf4111a665029fa09398c, type: 3}
    - {fileID: 21300000, guid: 8510b7093431641b28f9e9443ed01d5d, type: 3}
    - {fileID: 21300000, guid: 4a6326646bf7a4f56a20643de85d2d65, type: 3}
    - {fileID: 21300000, guid: 153fc58a03ef742fc9d25a12f18e864e, type: 3}
    - {fileID: 21300000, guid: 09caba655cbff48b2894e7cf710674a3, type: 3}
    - {fileID: 21300000, guid: 8bc33d00b939242eab8fa2515e2397a6, type: 3}
  m_AnimationClipSettings:
    serializedVersion: 2
    m_AdditiveReferencePoseClip: {fileID: 0}
    m_AdditiveReferencePoseTime: 0
    m_StartTime: 0
    m_StopTime: 1.9333334
    m_OrientationOffsetY: 0
    m_Level: 0
    m_CycleOffset: 0
    m_HasAdditiveReferencePose: 0
    m_LoopTime: 1
    m_LoopBlend: 0
    m_LoopBlendOrientation: 0
    m_LoopBlendPositionY: 0
    m_LoopBlendPositionXZ: 0
    m_KeepOriginalOrientation: 0
    m_KeepOriginalPositionY: 1
    m_KeepOriginalPositionXZ: 0
    m_HeightFromFeet: 0
    m_Mirror: 0
  m_EditorCurves: []
  m_EulerEditorCurves: []
  m_HasGenericRootTransform: 0
  m_HasMotionFloatCurves: 0
  m_Events: []
