%YAML 1.1
%TAG !u! tag:unity3d.com,2011:
--- !u!74 &7400000
AnimationClip:
  m_ObjectHideFlags: 0
  m_CorrespondingSourceObject: {fileID: 0}
  m_PrefabInstance: {fileID: 0}
  m_PrefabAsset: {fileID: 0}
  m_Name: Seafoam
  serializedVersion: 6
  m_Legacy: 0
  m_Compressed: 0
  m_UseHighQualityCurve: 1
  m_RotationCurves: []
  m_CompressedRotationCurves: []
  m_EulerCurves: []
  m_PositionCurves: []
  m_ScaleCurves: []
  m_FloatCurves: []
  m_PPtrCurves:
  - curve:
    - time: 0
      value: {fileID: 21300000, guid: 8596a55f19a5d46488353e3bf10eb8aa, type: 3}
    - time: 0.033333335
      value: {fileID: 21300000, guid: 61a12529fe5524ab6b246c8b8765d48c, type: 3}
    - time: 0.06666667
      value: {fileID: 21300000, guid: 11d42eaacecb84853bb6659a700390e8, type: 3}
    - time: 0.1
      value: {fileID: 21300000, guid: d1261b4ebde8f40d5a6593d49a2348d2, type: 3}
    - time: 0.13333334
      value: {fileID: 21300000, guid: 8e6259b59e8c04d21baa61c653653973, type: 3}
    - time: 0.16666667
      value: {fileID: 21300000, guid: a78a69157fd284cf3bd7f5cf2ea0689a, type: 3}
    - time: 0.2
      value: {fileID: 21300000, guid: 96c5334b753944b22b1153e46472175a, type: 3}
    - time: 0.23333333
      value: {fileID: 21300000, guid: 413ab991aaee44bea982425b9bcef40d, type: 3}
    - time: 0.26666668
      value: {fileID: 21300000, guid: d083723225e414ea9a203bd70a901dc1, type: 3}
    - time: 0.3
      value: {fileID: 21300000, guid: 405556d916f4644f9b26920857963ad0, type: 3}
    - time: 0.33333334
      value: {fileID: 21300000, guid: 6ad4b79ee1fbc4cbaa9d3c04328b201d, type: 3}
    - time: 0.36666667
      value: {fileID: 21300000, guid: 06e5bb56d169f41099b87fc1ad90c384, type: 3}
    - time: 0.4
      value: {fileID: 21300000, guid: 8a10a98d7f6994e4facd856b15bbc6e5, type: 3}
    - time: 0.43333334
      value: {fileID: 21300000, guid: fc479ca421102448cab93ab0ddd63538, type: 3}
    - time: 0.46666667
      value: {fileID: 21300000, guid: 660aced8afc844657961550f313cc301, type: 3}
    - time: 0.5
      value: {fileID: 21300000, guid: 3765ee7fab10b43228f89f970162adcc, type: 3}
    - time: 0.53333336
      value: {fileID: 21300000, guid: 15eef96465fc340c195a27956add8440, type: 3}
    - time: 0.56666666
      value: {fileID: 21300000, guid: a89603b9555a9458a8f6ac056511396f, type: 3}
    - time: 0.6
      value: {fileID: 21300000, guid: 22386b68d99844daf8130b1c62fb3b00, type: 3}
    - time: 0.6333333
      value: {fileID: 21300000, guid: 7432accae01104b1ea8228d34b5e4e90, type: 3}
    - time: 0.6666667
      value: {fileID: 21300000, guid: eb827cea7040d43f9ac6a4a3d7354dc6, type: 3}
    - time: 0.7
      value: {fileID: 21300000, guid: 0253696ff03434108ac83fd17e74b973, type: 3}
    - time: 0.73333335
      value: {fileID: 21300000, guid: 9677d70967d304eecba81c8d4ffe6758, type: 3}
    - time: 0.76666665
      value: {fileID: 21300000, guid: 8d5d191bcb5aa4b53a4e8afc7d8b0cf7, type: 3}
    - time: 0.8
      value: {fileID: 21300000, guid: 3b7a7fdc9f9654feca482ccf0e28dd36, type: 3}
    - time: 0.8333333
      value: {fileID: 21300000, guid: 2be5c4b8315e741d59e6e164f63c7326, type: 3}
    - time: 0.8666667
      value: {fileID: 21300000, guid: 7e03cb3aa10334053b4854c78dd50ef9, type: 3}
    - time: 0.9
      value: {fileID: 21300000, guid: 8ac279fd015cd49079c47907e11fe1af, type: 3}
    - time: 0.93333334
      value: {fileID: 21300000, guid: 260c73bd990ba45e5bf5eef8df4b2541, type: 3}
    - time: 0.96666664
      value: {fileID: 21300000, guid: 35a63546544c6473f8539178004e0f47, type: 3}
    - time: 1
      value: {fileID: 21300000, guid: 0b9358209fa00472da1a488b1cb14928, type: 3}
    - time: 1.0333333
      value: {fileID: 21300000, guid: 844db63d12c9b4c27b42140a169815d6, type: 3}
    - time: 1.0666667
      value: {fileID: 21300000, guid: bc5dac4817ffa4b179155bb1a48f036d, type: 3}
    - time: 1.1
      value: {fileID: 21300000, guid: 4422a807ca8ae4e238fdf56045810fad, type: 3}
    - time: 1.1333333
      value: {fileID: 21300000, guid: cc95f95b2a5714a3b9f937573ff29b70, type: 3}
    - time: 1.1666666
      value: {fileID: 21300000, guid: df5b97c4db6eb4129ba30cdcfa85ba7b, type: 3}
    - time: 1.2
      value: {fileID: 21300000, guid: 185c65f98dd914a8980ab3b9a371c6a1, type: 3}
    - time: 1.2333333
      value: {fileID: 21300000, guid: 97201961eda3146a08d48d0228d9b90b, type: 3}
    - time: 1.2666667
      value: {fileID: 21300000, guid: 632aca67b91e7413c9288288c1a6cfdf, type: 3}
    - time: 1.3
      value: {fileID: 21300000, guid: 7e2af603557734935bc09fc19d42f1d7, type: 3}
    - time: 1.3333334
      value: {fileID: 21300000, guid: 3dbf1ef18709b4a3aa8421702b99d31b, type: 3}
    - time: 1.3666667
      value: {fileID: 21300000, guid: 05f76a35c520945da8a98f77803e5427, type: 3}
    - time: 1.4
      value: {fileID: 21300000, guid: c46b1e10a73d54f359e5d581ab525647, type: 3}
    - time: 1.4333333
      value: {fileID: 21300000, guid: 772ee8286d3924189ab1b8a70bdae0cb, type: 3}
    - time: 1.4666667
      value: {fileID: 21300000, guid: 862fa17e488bb4308b548a55499294a4, type: 3}
    - time: 1.5
      value: {fileID: 21300000, guid: 6bddbeda527c04c1fa05b47d48b2faed, type: 3}
    - time: 1.5333333
      value: {fileID: 21300000, guid: f8b6aaaec0dd54adb9e42069bbbe9f50, type: 3}
    - time: 1.5666667
      value: {fileID: 21300000, guid: 37364047e008945db862577efb3a61ef, type: 3}
    - time: 1.6
      value: {fileID: 21300000, guid: c86d2e200841e447588e704af28b86d0, type: 3}
    - time: 1.6333333
      value: {fileID: 21300000, guid: a16e16feafc74473792b46d9e4cbd661, type: 3}
    - time: 1.6666666
      value: {fileID: 21300000, guid: 593609c9028eb4178a6cebea70f2a9ff, type: 3}
    - time: 1.7
      value: {fileID: 21300000, guid: 2a02b007c722e473f872e16eb2eacf7b, type: 3}
    - time: 1.7333333
      value: {fileID: 21300000, guid: e84ef9cf947784a6cb33a1d1e8b2a19f, type: 3}
    - time: 1.7666667
      value: {fileID: 21300000, guid: 3e772bba62ab04b49ae253e7d0e9fbdf, type: 3}
    - time: 1.8
      value: {fileID: 21300000, guid: 072014d41a833478eb1980eaa0351a3e, type: 3}
    - time: 1.8333334
      value: {fileID: 21300000, guid: 79095d2ecb0c64460829d7e92bd80345, type: 3}
    - time: 1.8666667
      value: {fileID: 21300000, guid: ba15f2a62682d429b934037e0fd37029, type: 3}
    - time: 1.9
      value: {fileID: 21300000, guid: 22cf0ec3e6dc44155ad57eb8ae17569e, type: 3}
    - time: 1.9333333
      value: {fileID: 21300000, guid: 2fd4823e3c72c4fc28f9b1230e8a8003, type: 3}
    - time: 1.9666667
      value: {fileID: 21300000, guid: 65ab86b48aa434bad9bc2a505b888040, type: 3}
    - time: 2
      value: {fileID: 21300000, guid: 0dcdc9ba2371046e5a605efc4359d5f9, type: 3}
    - time: 2.0333333
      value: {fileID: 21300000, guid: 96ddba5a65f594c39b16cccfcbc9a13b, type: 3}
    - time: 2.0666666
      value: {fileID: 21300000, guid: cc160bedecad0460199af655c900378b, type: 3}
    - time: 2.1
      value: {fileID: 21300000, guid: a57597685531d4d23a7d817b3685423e, type: 3}
    - time: 2.1333334
      value: {fileID: 21300000, guid: 245b3cd6c26e240279bb779eecdcace3, type: 3}
    - time: 2.1666667
      value: {fileID: 21300000, guid: 8de3e215eb24a46038cee269109d5ae0, type: 3}
    - time: 2.2
      value: {fileID: 21300000, guid: 1dea380562c9c4616a6d28fa80de14c2, type: 3}
    - time: 2.2333333
      value: {fileID: 21300000, guid: 4fe47e0e39cd8407782b03893f568ed8, type: 3}
    - time: 2.2666667
      value: {fileID: 21300000, guid: 86b01dd86fbbc4be98b05c0255fcd84b, type: 3}
    - time: 2.3
      value: {fileID: 21300000, guid: 3e962bcc37d824e22a70705053eea8e9, type: 3}
    - time: 2.3333333
      value: {fileID: 21300000, guid: 2cbef55b2d9d549f48e3b8ca254cfc27, type: 3}
    - time: 2.3666666
      value: {fileID: 21300000, guid: ef569e29abfd1437cb8a01d7e6577043, type: 3}
    - time: 2.4
      value: {fileID: 21300000, guid: fd553535211404d3b86d2865e5fc5723, type: 3}
    - time: 2.4333334
      value: {fileID: 21300000, guid: a2b631156e19649f79f7ad996650976b, type: 3}
    - time: 2.4666667
      value: {fileID: 21300000, guid: 4715fa1f691234c0b9524b9f7616d882, type: 3}
    - time: 2.5
      value: {fileID: 21300000, guid: b2b82c7d7ead540ba85002935b8c2fd3, type: 3}
    - time: 2.5333333
      value: {fileID: 21300000, guid: 746877ea96dd840278ceae9df4439c23, type: 3}
    - time: 2.5666666
      value: {fileID: 21300000, guid: b005e4ace77c24a3aa5d310c7154063f, type: 3}
    - time: 2.6
      value: {fileID: 21300000, guid: 508d2e5af3ae44dbaac2bfc464d97330, type: 3}
    - time: 2.6333334
      value: {fileID: 21300000, guid: 4381b2900e7f94597b235e267e0af302, type: 3}
    - time: 2.6666667
      value: {fileID: 21300000, guid: cc44c8cb2ee704205be2bd7ccf129454, type: 3}
    - time: 2.7
      value: {fileID: 21300000, guid: 2f9430c07abbc48eb8981ac469f77e5f, type: 3}
    - time: 2.7333333
      value: {fileID: 21300000, guid: f744fecafcfc2466aa0c36dbbef5a44f, type: 3}
    attribute: m_Sprite
    path: 
    classID: 212
    script: {fileID: 0}
  m_SampleRate: 30
  m_WrapMode: 0
  m_Bounds:
    m_Center: {x: 0, y: 0, z: 0}
    m_Extent: {x: 0, y: 0, z: 0}
  m_ClipBindingConstant:
    genericBindings:
    - serializedVersion: 2
      path: 0
      attribute: 0
      script: {fileID: 0}
      typeID: 212
      customType: 23
      isPPtrCurve: 1
    pptrCurveMapping:
    - {fileID: 21300000, guid: 8596a55f19a5d46488353e3bf10eb8aa, type: 3}
    - {fileID: 21300000, guid: 61a12529fe5524ab6b246c8b8765d48c, type: 3}
    - {fileID: 21300000, guid: 11d42eaacecb84853bb6659a700390e8, type: 3}
    - {fileID: 21300000, guid: d1261b4ebde8f40d5a6593d49a2348d2, type: 3}
    - {fileID: 21300000, guid: 8e6259b59e8c04d21baa61c653653973, type: 3}
    - {fileID: 21300000, guid: a78a69157fd284cf3bd7f5cf2ea0689a, type: 3}
    - {fileID: 21300000, guid: 96c5334b753944b22b1153e46472175a, type: 3}
    - {fileID: 21300000, guid: 413ab991aaee44bea982425b9bcef40d, type: 3}
    - {fileID: 21300000, guid: d083723225e414ea9a203bd70a901dc1, type: 3}
    - {fileID: 21300000, guid: 405556d916f4644f9b26920857963ad0, type: 3}
    - {fileID: 21300000, guid: 6ad4b79ee1fbc4cbaa9d3c04328b201d, type: 3}
    - {fileID: 21300000, guid: 06e5bb56d169f41099b87fc1ad90c384, type: 3}
    - {fileID: 21300000, guid: 8a10a98d7f6994e4facd856b15bbc6e5, type: 3}
    - {fileID: 21300000, guid: fc479ca421102448cab93ab0ddd63538, type: 3}
    - {fileID: 21300000, guid: 660aced8afc844657961550f313cc301, type: 3}
    - {fileID: 21300000, guid: 3765ee7fab10b43228f89f970162adcc, type: 3}
    - {fileID: 21300000, guid: 15eef96465fc340c195a27956add8440, type: 3}
    - {fileID: 21300000, guid: a89603b9555a9458a8f6ac056511396f, type: 3}
    - {fileID: 21300000, guid: 22386b68d99844daf8130b1c62fb3b00, type: 3}
    - {fileID: 21300000, guid: 7432accae01104b1ea8228d34b5e4e90, type: 3}
    - {fileID: 21300000, guid: eb827cea7040d43f9ac6a4a3d7354dc6, type: 3}
    - {fileID: 21300000, guid: 0253696ff03434108ac83fd17e74b973, type: 3}
    - {fileID: 21300000, guid: 9677d70967d304eecba81c8d4ffe6758, type: 3}
    - {fileID: 21300000, guid: 8d5d191bcb5aa4b53a4e8afc7d8b0cf7, type: 3}
    - {fileID: 21300000, guid: 3b7a7fdc9f9654feca482ccf0e28dd36, type: 3}
    - {fileID: 21300000, guid: 2be5c4b8315e741d59e6e164f63c7326, type: 3}
    - {fileID: 21300000, guid: 7e03cb3aa10334053b4854c78dd50ef9, type: 3}
    - {fileID: 21300000, guid: 8ac279fd015cd49079c47907e11fe1af, type: 3}
    - {fileID: 21300000, guid: 260c73bd990ba45e5bf5eef8df4b2541, type: 3}
    - {fileID: 21300000, guid: 35a63546544c6473f8539178004e0f47, type: 3}
    - {fileID: 21300000, guid: 0b9358209fa00472da1a488b1cb14928, type: 3}
    - {fileID: 21300000, guid: 844db63d12c9b4c27b42140a169815d6, type: 3}
    - {fileID: 21300000, guid: bc5dac4817ffa4b179155bb1a48f036d, type: 3}
    - {fileID: 21300000, guid: 4422a807ca8ae4e238fdf56045810fad, type: 3}
    - {fileID: 21300000, guid: cc95f95b2a5714a3b9f937573ff29b70, type: 3}
    - {fileID: 21300000, guid: df5b97c4db6eb4129ba30cdcfa85ba7b, type: 3}
    - {fileID: 21300000, guid: 185c65f98dd914a8980ab3b9a371c6a1, type: 3}
    - {fileID: 21300000, guid: 97201961eda3146a08d48d0228d9b90b, type: 3}
    - {fileID: 21300000, guid: 632aca67b91e7413c9288288c1a6cfdf, type: 3}
    - {fileID: 21300000, guid: 7e2af603557734935bc09fc19d42f1d7, type: 3}
    - {fileID: 21300000, guid: 3dbf1ef18709b4a3aa8421702b99d31b, type: 3}
    - {fileID: 21300000, guid: 05f76a35c520945da8a98f77803e5427, type: 3}
    - {fileID: 21300000, guid: c46b1e10a73d54f359e5d581ab525647, type: 3}
    - {fileID: 21300000, guid: 772ee8286d3924189ab1b8a70bdae0cb, type: 3}
    - {fileID: 21300000, guid: 862fa17e488bb4308b548a55499294a4, type: 3}
    - {fileID: 21300000, guid: 6bddbeda527c04c1fa05b47d48b2faed, type: 3}
    - {fileID: 21300000, guid: f8b6aaaec0dd54adb9e42069bbbe9f50, type: 3}
    - {fileID: 21300000, guid: 37364047e008945db862577efb3a61ef, type: 3}
    - {fileID: 21300000, guid: c86d2e200841e447588e704af28b86d0, type: 3}
    - {fileID: 21300000, guid: a16e16feafc74473792b46d9e4cbd661, type: 3}
    - {fileID: 21300000, guid: 593609c9028eb4178a6cebea70f2a9ff, type: 3}
    - {fileID: 21300000, guid: 2a02b007c722e473f872e16eb2eacf7b, type: 3}
    - {fileID: 21300000, guid: e84ef9cf947784a6cb33a1d1e8b2a19f, type: 3}
    - {fileID: 21300000, guid: 3e772bba62ab04b49ae253e7d0e9fbdf, type: 3}
    - {fileID: 21300000, guid: 072014d41a833478eb1980eaa0351a3e, type: 3}
    - {fileID: 21300000, guid: 79095d2ecb0c64460829d7e92bd80345, type: 3}
    - {fileID: 21300000, guid: ba15f2a62682d429b934037e0fd37029, type: 3}
    - {fileID: 21300000, guid: 22cf0ec3e6dc44155ad57eb8ae17569e, type: 3}
    - {fileID: 21300000, guid: 2fd4823e3c72c4fc28f9b1230e8a8003, type: 3}
    - {fileID: 21300000, guid: 65ab86b48aa434bad9bc2a505b888040, type: 3}
    - {fileID: 21300000, guid: 0dcdc9ba2371046e5a605efc4359d5f9, type: 3}
    - {fileID: 21300000, guid: 96ddba5a65f594c39b16cccfcbc9a13b, type: 3}
    - {fileID: 21300000, guid: cc160bedecad0460199af655c900378b, type: 3}
    - {fileID: 21300000, guid: a57597685531d4d23a7d817b3685423e, type: 3}
    - {fileID: 21300000, guid: 245b3cd6c26e240279bb779eecdcace3, type: 3}
    - {fileID: 21300000, guid: 8de3e215eb24a46038cee269109d5ae0, type: 3}
    - {fileID: 21300000, guid: 1dea380562c9c4616a6d28fa80de14c2, type: 3}
    - {fileID: 21300000, guid: 4fe47e0e39cd8407782b03893f568ed8, type: 3}
    - {fileID: 21300000, guid: 86b01dd86fbbc4be98b05c0255fcd84b, type: 3}
    - {fileID: 21300000, guid: 3e962bcc37d824e22a70705053eea8e9, type: 3}
    - {fileID: 21300000, guid: 2cbef55b2d9d549f48e3b8ca254cfc27, type: 3}
    - {fileID: 21300000, guid: ef569e29abfd1437cb8a01d7e6577043, type: 3}
    - {fileID: 21300000, guid: fd553535211404d3b86d2865e5fc5723, type: 3}
    - {fileID: 21300000, guid: a2b631156e19649f79f7ad996650976b, type: 3}
    - {fileID: 21300000, guid: 4715fa1f691234c0b9524b9f7616d882, type: 3}
    - {fileID: 21300000, guid: b2b82c7d7ead540ba85002935b8c2fd3, type: 3}
    - {fileID: 21300000, guid: 746877ea96dd840278ceae9df4439c23, type: 3}
    - {fileID: 21300000, guid: b005e4ace77c24a3aa5d310c7154063f, type: 3}
    - {fileID: 21300000, guid: 508d2e5af3ae44dbaac2bfc464d97330, type: 3}
    - {fileID: 21300000, guid: 4381b2900e7f94597b235e267e0af302, type: 3}
    - {fileID: 21300000, guid: cc44c8cb2ee704205be2bd7ccf129454, type: 3}
    - {fileID: 21300000, guid: 2f9430c07abbc48eb8981ac469f77e5f, type: 3}
    - {fileID: 21300000, guid: f744fecafcfc2466aa0c36dbbef5a44f, type: 3}
  m_AnimationClipSettings:
    serializedVersion: 2
    m_AdditiveReferencePoseClip: {fileID: 0}
    m_AdditiveReferencePoseTime: 0
    m_StartTime: 0
    m_StopTime: 2.7666667
    m_OrientationOffsetY: 0
    m_Level: 0
    m_CycleOffset: 0
    m_HasAdditiveReferencePose: 0
    m_LoopTime: 1
    m_LoopBlend: 0
    m_LoopBlendOrientation: 0
    m_LoopBlendPositionY: 0
    m_LoopBlendPositionXZ: 0
    m_KeepOriginalOrientation: 0
    m_KeepOriginalPositionY: 1
    m_KeepOriginalPositionXZ: 0
    m_HeightFromFeet: 0
    m_Mirror: 0
  m_EditorCurves: []
  m_EulerEditorCurves: []
  m_HasGenericRootTransform: 0
  m_HasMotionFloatCurves: 0
  m_Events: []
