%YAML 1.1
%TAG !u! tag:unity3d.com,2011:
--- !u!74 &7400000
AnimationClip:
  m_ObjectHideFlags: 0
  m_CorrespondingSourceObject: {fileID: 0}
  m_PrefabInstance: {fileID: 0}
  m_PrefabAsset: {fileID: 0}
  m_Name: Idle
  serializedVersion: 6
  m_Legacy: 0
  m_Compressed: 0
  m_UseHighQualityCurve: 1
  m_RotationCurves: []
  m_CompressedRotationCurves: []
  m_EulerCurves: []
  m_PositionCurves: []
  m_ScaleCurves: []
  m_FloatCurves: []
  m_PPtrCurves:
  - curve:
    - time: 0
      value: {fileID: 21300000, guid: cd304a88c2dde344597615bbca869ca7, type: 3}
    - time: 0.016666668
      value: {fileID: 21300000, guid: f14a57f32d2c08f4a9f5e68e54b9314d, type: 3}
    - time: 0.033333335
      value: {fileID: 21300000, guid: 76be52e801e67c14baf4bb0905c58f75, type: 3}
    - time: 0.05
      value: {fileID: 21300000, guid: ba26312d0042a7649b175bcb5f15b562, type: 3}
    - time: 0.083333336
      value: {fileID: 21300000, guid: 1910bfa1652336a43b6290eb04f7b878, type: 3}
    - time: 0.1
      value: {fileID: 21300000, guid: f25c902e8efcf4e43b3e4714b40d5d54, type: 3}
    - time: 0.13333334
      value: {fileID: 21300000, guid: 75e6baa02d12575498e3e41c9674097a, type: 3}
    - time: 0.15
      value: {fileID: 21300000, guid: 0617627a07e8c74419a820e801389142, type: 3}
    - time: 0.18333334
      value: {fileID: 21300000, guid: a6539e5555b2acf45a403dc9cd2520f3, type: 3}
    - time: 0.2
      value: {fileID: 21300000, guid: a8ac8d730bdd16846912dbc0b660dfe9, type: 3}
    - time: 0.25
      value: {fileID: 21300000, guid: 60c6c232e33dc73488b38d9db0bb9326, type: 3}
    - time: 0.26666668
      value: {fileID: 21300000, guid: 69e7647a046cff44dabd3e46ceeb19af, type: 3}
    - time: 0.28333333
      value: {fileID: 21300000, guid: a4f65225dac08f242ac882c90ff2e79a, type: 3}
    - time: 0.31666666
      value: {fileID: 21300000, guid: 9dd407daf0048a04eaab45e9a524d53a, type: 3}
    - time: 0.35
      value: {fileID: 21300000, guid: 8a8fe8019491fbe4989144bbe6c91e5b, type: 3}
    - time: 0.36666667
      value: {fileID: 21300000, guid: 7fd308bd78e5a2c47a13e63431fc8e76, type: 3}
    - time: 0.41666666
      value: {fileID: 21300000, guid: 2e01d039daff56543b1534ad426307f5, type: 3}
    - time: 0.43333334
      value: {fileID: 21300000, guid: 0b85f1aa15a83ed4ab48470b248a525c, type: 3}
    - time: 0.48333332
      value: {fileID: 21300000, guid: 5f5b2963a7453df48949e3b0ec5e96a1, type: 3}
    - time: 0.5
      value: {fileID: 21300000, guid: d98ed251c8c7ee240965e13ecd8b60f8, type: 3}
    - time: 0.53333336
      value: {fileID: 21300000, guid: 324a909ae5d4cd941afdd10bf69c3e4c, type: 3}
    - time: 0.55
      value: {fileID: 21300000, guid: 8fc4504dae3dc844a90e213aa793fa20, type: 3}
    - time: 0.5833333
      value: {fileID: 21300000, guid: 380b6d2303638814fbc6c15a022b7c21, type: 3}
    - time: 0.6
      value: {fileID: 21300000, guid: f6b8415eda778dd4886bcb30ec961f4b, type: 3}
    - time: 0.6166667
      value: {fileID: 21300000, guid: 05299bcda01ee6349851ee6cd558ec74, type: 3}
    - time: 0.65
      value: {fileID: 21300000, guid: 28f0b26bf8c2e284eb5f954ab227bb18, type: 3}
    - time: 0.68333334
      value: {fileID: 21300000, guid: 12e346fa59c2ab946a26685c3a75e1ed, type: 3}
    attribute: m_Sprite
    path: 
    classID: 212
    script: {fileID: 0}
  m_SampleRate: 60
  m_WrapMode: 0
  m_Bounds:
    m_Center: {x: 0, y: 0, z: 0}
    m_Extent: {x: 0, y: 0, z: 0}
  m_ClipBindingConstant:
    genericBindings:
    - serializedVersion: 2
      path: 0
      attribute: 0
      script: {fileID: 0}
      typeID: 212
      customType: 23
      isPPtrCurve: 1
    pptrCurveMapping:
    - {fileID: 21300000, guid: cd304a88c2dde344597615bbca869ca7, type: 3}
    - {fileID: 21300000, guid: f14a57f32d2c08f4a9f5e68e54b9314d, type: 3}
    - {fileID: 21300000, guid: 76be52e801e67c14baf4bb0905c58f75, type: 3}
    - {fileID: 21300000, guid: ba26312d0042a7649b175bcb5f15b562, type: 3}
    - {fileID: 21300000, guid: 1910bfa1652336a43b6290eb04f7b878, type: 3}
    - {fileID: 21300000, guid: f25c902e8efcf4e43b3e4714b40d5d54, type: 3}
    - {fileID: 21300000, guid: 75e6baa02d12575498e3e41c9674097a, type: 3}
    - {fileID: 21300000, guid: 0617627a07e8c74419a820e801389142, type: 3}
    - {fileID: 21300000, guid: a6539e5555b2acf45a403dc9cd2520f3, type: 3}
    - {fileID: 21300000, guid: a8ac8d730bdd16846912dbc0b660dfe9, type: 3}
    - {fileID: 21300000, guid: 60c6c232e33dc73488b38d9db0bb9326, type: 3}
    - {fileID: 21300000, guid: 69e7647a046cff44dabd3e46ceeb19af, type: 3}
    - {fileID: 21300000, guid: a4f65225dac08f242ac882c90ff2e79a, type: 3}
    - {fileID: 21300000, guid: 9dd407daf0048a04eaab45e9a524d53a, type: 3}
    - {fileID: 21300000, guid: 8a8fe8019491fbe4989144bbe6c91e5b, type: 3}
    - {fileID: 21300000, guid: 7fd308bd78e5a2c47a13e63431fc8e76, type: 3}
    - {fileID: 21300000, guid: 2e01d039daff56543b1534ad426307f5, type: 3}
    - {fileID: 21300000, guid: 0b85f1aa15a83ed4ab48470b248a525c, type: 3}
    - {fileID: 21300000, guid: 5f5b2963a7453df48949e3b0ec5e96a1, type: 3}
    - {fileID: 21300000, guid: d98ed251c8c7ee240965e13ecd8b60f8, type: 3}
    - {fileID: 21300000, guid: 324a909ae5d4cd941afdd10bf69c3e4c, type: 3}
    - {fileID: 21300000, guid: 8fc4504dae3dc844a90e213aa793fa20, type: 3}
    - {fileID: 21300000, guid: 380b6d2303638814fbc6c15a022b7c21, type: 3}
    - {fileID: 21300000, guid: f6b8415eda778dd4886bcb30ec961f4b, type: 3}
    - {fileID: 21300000, guid: 05299bcda01ee6349851ee6cd558ec74, type: 3}
    - {fileID: 21300000, guid: 28f0b26bf8c2e284eb5f954ab227bb18, type: 3}
    - {fileID: 21300000, guid: 12e346fa59c2ab946a26685c3a75e1ed, type: 3}
  m_AnimationClipSettings:
    serializedVersion: 2
    m_AdditiveReferencePoseClip: {fileID: 0}
    m_AdditiveReferencePoseTime: 0
    m_StartTime: 0
    m_StopTime: 0.7
    m_OrientationOffsetY: 0
    m_Level: 0
    m_CycleOffset: 0
    m_HasAdditiveReferencePose: 0
    m_LoopTime: 1
    m_LoopBlend: 0
    m_LoopBlendOrientation: 0
    m_LoopBlendPositionY: 0
    m_LoopBlendPositionXZ: 0
    m_KeepOriginalOrientation: 0
    m_KeepOriginalPositionY: 1
    m_KeepOriginalPositionXZ: 0
    m_HeightFromFeet: 0
    m_Mirror: 0
  m_EditorCurves: []
  m_EulerEditorCurves: []
  m_HasGenericRootTransform: 0
  m_HasMotionFloatCurves: 0
  m_Events: []
