%YAML 1.1
%TAG !u! tag:unity3d.com,2011:
--- !u!74 &7400000
AnimationClip:
  m_ObjectHideFlags: 0
  m_CorrespondingSourceObject: {fileID: 0}
  m_PrefabInstance: {fileID: 0}
  m_PrefabAsset: {fileID: 0}
  m_Name: Dash
  serializedVersion: 6
  m_Legacy: 0
  m_Compressed: 0
  m_UseHighQualityCurve: 1
  m_RotationCurves: []
  m_CompressedRotationCurves: []
  m_EulerCurves: []
  m_PositionCurves: []
  m_ScaleCurves: []
  m_FloatCurves: []
  m_PPtrCurves:
  - curve:
    - time: 0
      value: {fileID: 21300000, guid: 3ee3454c9d9f848e5a5098969f2d8fdd, type: 3}
    - time: 0.033333335
      value: {fileID: 21300000, guid: 60f4519e19ef24c4089dcee06c6fea91, type: 3}
    - time: 0.06666667
      value: {fileID: 21300000, guid: 7434ee4cf63704aecab09d08b82a03d6, type: 3}
    - time: 0.1
      value: {fileID: 21300000, guid: ef9b3f46bfe224f588085e43842c358f, type: 3}
    - time: 0.13333334
      value: {fileID: 21300000, guid: 42a5a122ff40e4ceca0db9f01f0bc1f8, type: 3}
    - time: 0.16666667
      value: {fileID: 21300000, guid: 1b1f917aa69d14133a40c6969393de06, type: 3}
    - time: 0.2
      value: {fileID: 21300000, guid: 9b2d3c1dccbd8469bb92f61d8d912e3c, type: 3}
    - time: 0.23333333
      value: {fileID: 21300000, guid: 3a30685b3f1294307aa20ff990653afd, type: 3}
    - time: 0.26666668
      value: {fileID: 21300000, guid: b38a96abae26c43bd8240137d0c111f0, type: 3}
    - time: 0.3
      value: {fileID: 21300000, guid: 13009a7ca75114241bf11fee823b8d8e, type: 3}
    attribute: m_Sprite
    path: 
    classID: 212
    script: {fileID: 0}
  m_SampleRate: 30
  m_WrapMode: 0
  m_Bounds:
    m_Center: {x: 0, y: 0, z: 0}
    m_Extent: {x: 0, y: 0, z: 0}
  m_ClipBindingConstant:
    genericBindings:
    - serializedVersion: 2
      path: 0
      attribute: 0
      script: {fileID: 0}
      typeID: 212
      customType: 23
      isPPtrCurve: 1
    pptrCurveMapping:
    - {fileID: 21300000, guid: 3ee3454c9d9f848e5a5098969f2d8fdd, type: 3}
    - {fileID: 21300000, guid: 60f4519e19ef24c4089dcee06c6fea91, type: 3}
    - {fileID: 21300000, guid: 7434ee4cf63704aecab09d08b82a03d6, type: 3}
    - {fileID: 21300000, guid: ef9b3f46bfe224f588085e43842c358f, type: 3}
    - {fileID: 21300000, guid: 42a5a122ff40e4ceca0db9f01f0bc1f8, type: 3}
    - {fileID: 21300000, guid: 1b1f917aa69d14133a40c6969393de06, type: 3}
    - {fileID: 21300000, guid: 9b2d3c1dccbd8469bb92f61d8d912e3c, type: 3}
    - {fileID: 21300000, guid: 3a30685b3f1294307aa20ff990653afd, type: 3}
    - {fileID: 21300000, guid: b38a96abae26c43bd8240137d0c111f0, type: 3}
    - {fileID: 21300000, guid: 13009a7ca75114241bf11fee823b8d8e, type: 3}
  m_AnimationClipSettings:
    serializedVersion: 2
    m_AdditiveReferencePoseClip: {fileID: 0}
    m_AdditiveReferencePoseTime: 0
    m_StartTime: 0
    m_StopTime: 0.33333334
    m_OrientationOffsetY: 0
    m_Level: 0
    m_CycleOffset: 0
    m_HasAdditiveReferencePose: 0
    m_LoopTime: 0
    m_LoopBlend: 0
    m_LoopBlendOrientation: 0
    m_LoopBlendPositionY: 0
    m_LoopBlendPositionXZ: 0
    m_KeepOriginalOrientation: 0
    m_KeepOriginalPositionY: 1
    m_KeepOriginalPositionXZ: 0
    m_HeightFromFeet: 0
    m_Mirror: 0
  m_EditorCurves: []
  m_EulerEditorCurves: []
  m_HasGenericRootTransform: 0
  m_HasMotionFloatCurves: 0
  m_Events: []
