%YAML 1.1
%TAG !u! tag:unity3d.com,2011:
--- !u!74 &7400000
AnimationClip:
  m_ObjectHideFlags: 0
  m_CorrespondingSourceObject: {fileID: 0}
  m_PrefabInstance: {fileID: 0}
  m_PrefabAsset: {fileID: 0}
  m_Name: Death
  serializedVersion: 6
  m_Legacy: 0
  m_Compressed: 0
  m_UseHighQualityCurve: 1
  m_RotationCurves: []
  m_CompressedRotationCurves: []
  m_EulerCurves: []
  m_PositionCurves: []
  m_ScaleCurves: []
  m_FloatCurves: []
  m_PPtrCurves:
  - curve:
    - time: 0
      value: {fileID: 21300000, guid: 6b0a92d675fcc490eaaf34bec27fa2a2, type: 3}
    - time: 0.033333335
      value: {fileID: 21300000, guid: d877a491266ff4d349c15221773e006f, type: 3}
    - time: 0.06666667
      value: {fileID: 21300000, guid: df0f8cea7971847e6933b49fe0649c42, type: 3}
    - time: 0.1
      value: {fileID: 21300000, guid: 55a1dca2a99594c6ea6eaad08a062920, type: 3}
    - time: 0.13333334
      value: {fileID: 21300000, guid: f4b140799b78a41d1824aa4be010bcd0, type: 3}
    - time: 0.16666667
      value: {fileID: 21300000, guid: ad195855076974b9faef8b5c9d540eb7, type: 3}
    - time: 0.2
      value: {fileID: 21300000, guid: 3355a5d3f6d1940dfb7dfe1258fc1ea1, type: 3}
    - time: 0.23333333
      value: {fileID: 21300000, guid: 26a5a4635c6f84420b34fe71a0a851d7, type: 3}
    - time: 0.26666668
      value: {fileID: 21300000, guid: 0008786b866544fb5927916e6ef90f3d, type: 3}
    - time: 0.3
      value: {fileID: 21300000, guid: 44415e65070224c25b56be76dd413932, type: 3}
    - time: 0.33333334
      value: {fileID: 21300000, guid: a348ce50599dd45b1afc42e74c8d2837, type: 3}
    - time: 0.36666667
      value: {fileID: 21300000, guid: 9aeecd6887536483ead994b355037f7b, type: 3}
    - time: 0.4
      value: {fileID: 21300000, guid: f9ec6a267399c49529003cbbd9c372cd, type: 3}
    - time: 0.43333334
      value: {fileID: 21300000, guid: 613fbc36c2bfe4643bed00fed31392d5, type: 3}
    - time: 0.46666667
      value: {fileID: 21300000, guid: e97fcad105bd649f6afa581960621cb0, type: 3}
    - time: 0.5
      value: {fileID: 21300000, guid: 1278098c3c9b04ab5bffcaee0a7d6dba, type: 3}
    - time: 0.53333336
      value: {fileID: 21300000, guid: 9df7f3ab85d394c89a8ce038230c1f88, type: 3}
    - time: 0.56666666
      value: {fileID: 21300000, guid: 0ee811db2ae4e4013b62254bff210aaf, type: 3}
    - time: 0.6
      value: {fileID: 21300000, guid: 2e4c229a1e9ad441bb789d3fe6412d5a, type: 3}
    - time: 0.6333333
      value: {fileID: 21300000, guid: a1dcfb61ca5f3408188900b7ca2331e0, type: 3}
    - time: 0.6666667
      value: {fileID: 21300000, guid: 68ebf399f956a4380948db91b5d8e9f6, type: 3}
    - time: 0.7
      value: {fileID: 21300000, guid: 573e47d4c69824205b9d68ce559ec945, type: 3}
    - time: 0.73333335
      value: {fileID: 21300000, guid: 6638023b3a5254048b7b40b32438d26f, type: 3}
    - time: 0.76666665
      value: {fileID: 21300000, guid: f3dfdc04090e24660bd8450e52c58418, type: 3}
    - time: 0.8
      value: {fileID: 21300000, guid: 7ec040c436afe41f79f5e11cdecc8eee, type: 3}
    - time: 0.8333333
      value: {fileID: 21300000, guid: df20bc039ae9549ab8697f0be87a1200, type: 3}
    - time: 0.8666667
      value: {fileID: 21300000, guid: bbc56800bc77c4ecda5545126d51750b, type: 3}
    - time: 0.9
      value: {fileID: 21300000, guid: fbb2c0627f3764951b4280cf4ecc8b1c, type: 3}
    - time: 0.93333334
      value: {fileID: 21300000, guid: 555ba28f6fe5b4877af0d06528e61db3, type: 3}
    - time: 0.96666664
      value: {fileID: 21300000, guid: 91870414fbaee489eb7609292f4051a2, type: 3}
    attribute: m_Sprite
    path: 
    classID: 212
    script: {fileID: 0}
  m_SampleRate: 30
  m_WrapMode: 0
  m_Bounds:
    m_Center: {x: 0, y: 0, z: 0}
    m_Extent: {x: 0, y: 0, z: 0}
  m_ClipBindingConstant:
    genericBindings:
    - serializedVersion: 2
      path: 0
      attribute: 0
      script: {fileID: 0}
      typeID: 212
      customType: 23
      isPPtrCurve: 1
    pptrCurveMapping:
    - {fileID: 21300000, guid: 6b0a92d675fcc490eaaf34bec27fa2a2, type: 3}
    - {fileID: 21300000, guid: d877a491266ff4d349c15221773e006f, type: 3}
    - {fileID: 21300000, guid: df0f8cea7971847e6933b49fe0649c42, type: 3}
    - {fileID: 21300000, guid: 55a1dca2a99594c6ea6eaad08a062920, type: 3}
    - {fileID: 21300000, guid: f4b140799b78a41d1824aa4be010bcd0, type: 3}
    - {fileID: 21300000, guid: ad195855076974b9faef8b5c9d540eb7, type: 3}
    - {fileID: 21300000, guid: 3355a5d3f6d1940dfb7dfe1258fc1ea1, type: 3}
    - {fileID: 21300000, guid: 26a5a4635c6f84420b34fe71a0a851d7, type: 3}
    - {fileID: 21300000, guid: 0008786b866544fb5927916e6ef90f3d, type: 3}
    - {fileID: 21300000, guid: 44415e65070224c25b56be76dd413932, type: 3}
    - {fileID: 21300000, guid: a348ce50599dd45b1afc42e74c8d2837, type: 3}
    - {fileID: 21300000, guid: 9aeecd6887536483ead994b355037f7b, type: 3}
    - {fileID: 21300000, guid: f9ec6a267399c49529003cbbd9c372cd, type: 3}
    - {fileID: 21300000, guid: 613fbc36c2bfe4643bed00fed31392d5, type: 3}
    - {fileID: 21300000, guid: e97fcad105bd649f6afa581960621cb0, type: 3}
    - {fileID: 21300000, guid: 1278098c3c9b04ab5bffcaee0a7d6dba, type: 3}
    - {fileID: 21300000, guid: 9df7f3ab85d394c89a8ce038230c1f88, type: 3}
    - {fileID: 21300000, guid: 0ee811db2ae4e4013b62254bff210aaf, type: 3}
    - {fileID: 21300000, guid: 2e4c229a1e9ad441bb789d3fe6412d5a, type: 3}
    - {fileID: 21300000, guid: a1dcfb61ca5f3408188900b7ca2331e0, type: 3}
    - {fileID: 21300000, guid: 68ebf399f956a4380948db91b5d8e9f6, type: 3}
    - {fileID: 21300000, guid: 573e47d4c69824205b9d68ce559ec945, type: 3}
    - {fileID: 21300000, guid: 6638023b3a5254048b7b40b32438d26f, type: 3}
    - {fileID: 21300000, guid: f3dfdc04090e24660bd8450e52c58418, type: 3}
    - {fileID: 21300000, guid: 7ec040c436afe41f79f5e11cdecc8eee, type: 3}
    - {fileID: 21300000, guid: df20bc039ae9549ab8697f0be87a1200, type: 3}
    - {fileID: 21300000, guid: bbc56800bc77c4ecda5545126d51750b, type: 3}
    - {fileID: 21300000, guid: fbb2c0627f3764951b4280cf4ecc8b1c, type: 3}
    - {fileID: 21300000, guid: 555ba28f6fe5b4877af0d06528e61db3, type: 3}
    - {fileID: 21300000, guid: 91870414fbaee489eb7609292f4051a2, type: 3}
  m_AnimationClipSettings:
    serializedVersion: 2
    m_AdditiveReferencePoseClip: {fileID: 0}
    m_AdditiveReferencePoseTime: 0
    m_StartTime: 0
    m_StopTime: 1
    m_OrientationOffsetY: 0
    m_Level: 0
    m_CycleOffset: 0
    m_HasAdditiveReferencePose: 0
    m_LoopTime: 0
    m_LoopBlend: 0
    m_LoopBlendOrientation: 0
    m_LoopBlendPositionY: 0
    m_LoopBlendPositionXZ: 0
    m_KeepOriginalOrientation: 0
    m_KeepOriginalPositionY: 1
    m_KeepOriginalPositionXZ: 0
    m_HeightFromFeet: 0
    m_Mirror: 0
  m_EditorCurves: []
  m_EulerEditorCurves: []
  m_HasGenericRootTransform: 0
  m_HasMotionFloatCurves: 0
  m_Events: []
