%YAML 1.1
%TAG !u! tag:unity3d.com,2011:
--- !u!74 &7400000
AnimationClip:
  m_ObjectHideFlags: 0
  m_CorrespondingSourceObject: {fileID: 0}
  m_PrefabInstance: {fileID: 0}
  m_PrefabAsset: {fileID: 0}
  m_Name: DoubleJump
  serializedVersion: 6
  m_Legacy: 0
  m_Compressed: 0
  m_UseHighQualityCurve: 1
  m_RotationCurves: []
  m_CompressedRotationCurves: []
  m_EulerCurves: []
  m_PositionCurves: []
  m_ScaleCurves: []
  m_FloatCurves: []
  m_PPtrCurves:
  - curve:
    - time: 0
      value: {fileID: 21300000, guid: a4db09dd1712e472698bff47532d9ef6, type: 3}
    - time: 0.033333335
      value: {fileID: 21300000, guid: 9bd86a7e8d3014227b169419a250cc46, type: 3}
    - time: 0.06666667
      value: {fileID: 21300000, guid: 066052f8752d443b58a5758c87464ac3, type: 3}
    - time: 0.1
      value: {fileID: 21300000, guid: bc6a697298a044478b2ea847e2f8910c, type: 3}
    - time: 0.13333334
      value: {fileID: 21300000, guid: 78b7bf358528e43babd3c95caaa960fe, type: 3}
    - time: 0.16666667
      value: {fileID: 21300000, guid: 66bcd895023ef4ad7913bb676a8c6e09, type: 3}
    - time: 0.2
      value: {fileID: 21300000, guid: 4260a665805f541f69bbf110754178d6, type: 3}
    - time: 0.23333333
      value: {fileID: 21300000, guid: 128ae7bbe66694228b661eadb40f92c4, type: 3}
    - time: 0.26666668
      value: {fileID: 21300000, guid: 296aed85b20fb4947a7e378635ccbf57, type: 3}
    - time: 0.3
      value: {fileID: 21300000, guid: ead0793b1044748c5bf5b39d0aa80ded, type: 3}
    - time: 0.33333334
      value: {fileID: 21300000, guid: 31db5778350a64862994ee60cbbde2a5, type: 3}
    - time: 0.36666667
      value: {fileID: 21300000, guid: ea63ad082e9e94575a518b918d17e6aa, type: 3}
    - time: 0.4
      value: {fileID: 21300000, guid: efb9f4da9000a4091820fecbc984eb2f, type: 3}
    - time: 0.43333334
      value: {fileID: 21300000, guid: 05d4dcc399270433a83fa5a1238f0d27, type: 3}
    - time: 0.46666667
      value: {fileID: 21300000, guid: e68d00130aed5486db872f1b829a135e, type: 3}
    - time: 0.5
      value: {fileID: 21300000, guid: a0988dfaefdcc408986790b5a6aa55df, type: 3}
    - time: 0.53333336
      value: {fileID: 21300000, guid: f961e0999058147399b9df8c136fef3b, type: 3}
    - time: 0.56666666
      value: {fileID: 21300000, guid: 49e3e97fea10442acb2c83f0b1db8664, type: 3}
    - time: 0.6
      value: {fileID: 21300000, guid: e00fd3fab670e4174b22ed6924239da6, type: 3}
    - time: 0.6333333
      value: {fileID: 21300000, guid: c67e697093b02439ebf54443c6376073, type: 3}
    - time: 0.6666667
      value: {fileID: 21300000, guid: 699571b386b7f455c8ed5afd99449cd5, type: 3}
    - time: 0.7
      value: {fileID: 21300000, guid: 4e0b788ecf062489db436a3169721c17, type: 3}
    - time: 0.73333335
      value: {fileID: 21300000, guid: 44ffc88af2bfa4ef9b6087161d09555e, type: 3}
    - time: 0.76666665
      value: {fileID: 21300000, guid: 878ff2deb28574d0ba422c346cd98a65, type: 3}
    - time: 0.8
      value: {fileID: 21300000, guid: e92ec3a642ddd4b1e87e1b6af059ff66, type: 3}
    - time: 0.8333333
      value: {fileID: 21300000, guid: cd584865ba7264d58a3ab9c56b0e6ea1, type: 3}
    - time: 0.8666667
      value: {fileID: 21300000, guid: f3635a44db6a846218564525454c8b64, type: 3}
    - time: 0.9
      value: {fileID: 21300000, guid: 2d290ab1f3113475ca24c661ea0b3850, type: 3}
    - time: 0.93333334
      value: {fileID: 21300000, guid: 98e1962de42fe4810a84e77451f56823, type: 3}
    - time: 0.96666664
      value: {fileID: 21300000, guid: 6c4a9d563abef4580899410416d0d85f, type: 3}
    - time: 1
      value: {fileID: 21300000, guid: 83feaeee463f644328fae8b1832a1cab, type: 3}
    - time: 1.0333333
      value: {fileID: 21300000, guid: f63f08aa51ef3410eb89213fb26a875d, type: 3}
    - time: 1.0666667
      value: {fileID: 21300000, guid: b5e1b20123adc4095b8aa44d1d5f42ca, type: 3}
    - time: 1.1
      value: {fileID: 21300000, guid: efda2f3fc7f9e4e109a2166d6d375105, type: 3}
    - time: 1.1333333
      value: {fileID: 21300000, guid: cb4229e1c9277492b8c0028cf6261532, type: 3}
    - time: 1.1666666
      value: {fileID: 21300000, guid: fc983bf44b12c4a1ab6ffea7e777a6ad, type: 3}
    - time: 1.2
      value: {fileID: 21300000, guid: b34ed733ee92d4a7e81d165f95cea3dd, type: 3}
    attribute: m_Sprite
    path: 
    classID: 212
    script: {fileID: 0}
  m_SampleRate: 30
  m_WrapMode: 0
  m_Bounds:
    m_Center: {x: 0, y: 0, z: 0}
    m_Extent: {x: 0, y: 0, z: 0}
  m_ClipBindingConstant:
    genericBindings:
    - serializedVersion: 2
      path: 0
      attribute: 0
      script: {fileID: 0}
      typeID: 212
      customType: 23
      isPPtrCurve: 1
    pptrCurveMapping:
    - {fileID: 21300000, guid: a4db09dd1712e472698bff47532d9ef6, type: 3}
    - {fileID: 21300000, guid: 9bd86a7e8d3014227b169419a250cc46, type: 3}
    - {fileID: 21300000, guid: 066052f8752d443b58a5758c87464ac3, type: 3}
    - {fileID: 21300000, guid: bc6a697298a044478b2ea847e2f8910c, type: 3}
    - {fileID: 21300000, guid: 78b7bf358528e43babd3c95caaa960fe, type: 3}
    - {fileID: 21300000, guid: 66bcd895023ef4ad7913bb676a8c6e09, type: 3}
    - {fileID: 21300000, guid: 4260a665805f541f69bbf110754178d6, type: 3}
    - {fileID: 21300000, guid: 128ae7bbe66694228b661eadb40f92c4, type: 3}
    - {fileID: 21300000, guid: 296aed85b20fb4947a7e378635ccbf57, type: 3}
    - {fileID: 21300000, guid: ead0793b1044748c5bf5b39d0aa80ded, type: 3}
    - {fileID: 21300000, guid: 31db5778350a64862994ee60cbbde2a5, type: 3}
    - {fileID: 21300000, guid: ea63ad082e9e94575a518b918d17e6aa, type: 3}
    - {fileID: 21300000, guid: efb9f4da9000a4091820fecbc984eb2f, type: 3}
    - {fileID: 21300000, guid: 05d4dcc399270433a83fa5a1238f0d27, type: 3}
    - {fileID: 21300000, guid: e68d00130aed5486db872f1b829a135e, type: 3}
    - {fileID: 21300000, guid: a0988dfaefdcc408986790b5a6aa55df, type: 3}
    - {fileID: 21300000, guid: f961e0999058147399b9df8c136fef3b, type: 3}
    - {fileID: 21300000, guid: 49e3e97fea10442acb2c83f0b1db8664, type: 3}
    - {fileID: 21300000, guid: e00fd3fab670e4174b22ed6924239da6, type: 3}
    - {fileID: 21300000, guid: c67e697093b02439ebf54443c6376073, type: 3}
    - {fileID: 21300000, guid: 699571b386b7f455c8ed5afd99449cd5, type: 3}
    - {fileID: 21300000, guid: 4e0b788ecf062489db436a3169721c17, type: 3}
    - {fileID: 21300000, guid: 44ffc88af2bfa4ef9b6087161d09555e, type: 3}
    - {fileID: 21300000, guid: 878ff2deb28574d0ba422c346cd98a65, type: 3}
    - {fileID: 21300000, guid: e92ec3a642ddd4b1e87e1b6af059ff66, type: 3}
    - {fileID: 21300000, guid: cd584865ba7264d58a3ab9c56b0e6ea1, type: 3}
    - {fileID: 21300000, guid: f3635a44db6a846218564525454c8b64, type: 3}
    - {fileID: 21300000, guid: 2d290ab1f3113475ca24c661ea0b3850, type: 3}
    - {fileID: 21300000, guid: 98e1962de42fe4810a84e77451f56823, type: 3}
    - {fileID: 21300000, guid: 6c4a9d563abef4580899410416d0d85f, type: 3}
    - {fileID: 21300000, guid: 83feaeee463f644328fae8b1832a1cab, type: 3}
    - {fileID: 21300000, guid: f63f08aa51ef3410eb89213fb26a875d, type: 3}
    - {fileID: 21300000, guid: b5e1b20123adc4095b8aa44d1d5f42ca, type: 3}
    - {fileID: 21300000, guid: efda2f3fc7f9e4e109a2166d6d375105, type: 3}
    - {fileID: 21300000, guid: cb4229e1c9277492b8c0028cf6261532, type: 3}
    - {fileID: 21300000, guid: fc983bf44b12c4a1ab6ffea7e777a6ad, type: 3}
    - {fileID: 21300000, guid: b34ed733ee92d4a7e81d165f95cea3dd, type: 3}
  m_AnimationClipSettings:
    serializedVersion: 2
    m_AdditiveReferencePoseClip: {fileID: 0}
    m_AdditiveReferencePoseTime: 0
    m_StartTime: 0
    m_StopTime: 1.2333333
    m_OrientationOffsetY: 0
    m_Level: 0
    m_CycleOffset: 0
    m_HasAdditiveReferencePose: 0
    m_LoopTime: 0
    m_LoopBlend: 0
    m_LoopBlendOrientation: 0
    m_LoopBlendPositionY: 0
    m_LoopBlendPositionXZ: 0
    m_KeepOriginalOrientation: 0
    m_KeepOriginalPositionY: 1
    m_KeepOriginalPositionXZ: 0
    m_HeightFromFeet: 0
    m_Mirror: 0
  m_EditorCurves: []
  m_EulerEditorCurves: []
  m_HasGenericRootTransform: 0
  m_HasMotionFloatCurves: 0
  m_Events: []
