%YAML 1.1
%TAG !u! tag:unity3d.com,2011:
--- !u!74 &7400000
AnimationClip:
  m_ObjectHideFlags: 0
  m_CorrespondingSourceObject: {fileID: 0}
  m_PrefabInstance: {fileID: 0}
  m_PrefabAsset: {fileID: 0}
  m_Name: damage
  serializedVersion: 6
  m_Legacy: 0
  m_Compressed: 0
  m_UseHighQualityCurve: 1
  m_RotationCurves: []
  m_CompressedRotationCurves: []
  m_EulerCurves: []
  m_PositionCurves: []
  m_ScaleCurves: []
  m_FloatCurves: []
  m_PPtrCurves:
  - curve:
    - time: 0
      value: {fileID: 21300000, guid: cf1838eec870347528198e842af4a499, type: 3}
    - time: 0.033333335
      value: {fileID: 21300000, guid: fa03dff45891d445196c41645d140b16, type: 3}
    - time: 0.06666667
      value: {fileID: 21300000, guid: 486defec7bfaf4b54bf7857fc20282bc, type: 3}
    - time: 0.1
      value: {fileID: 21300000, guid: 19271073e552d4a848e541d67d0e0d26, type: 3}
    - time: 0.13333334
      value: {fileID: 21300000, guid: a16beabda83b84202b27051f13f7ccb5, type: 3}
    - time: 0.16666667
      value: {fileID: 21300000, guid: f7e89600ac00b487aa6261cda30cf50b, type: 3}
    - time: 0.2
      value: {fileID: 21300000, guid: a65454bfcbb1244feb42c4225d70f639, type: 3}
    - time: 0.23333333
      value: {fileID: 21300000, guid: e60aefe451f4b4af1912bc468f6455c9, type: 3}
    - time: 0.26666668
      value: {fileID: 21300000, guid: 3f5fedecf29e746b293e364df00bce60, type: 3}
    - time: 0.3
      value: {fileID: 21300000, guid: fd416ae98e8fe4141bfa759b6543dfa3, type: 3}
    - time: 0.33333334
      value: {fileID: 21300000, guid: fb2e0645618e54e23bee09c3dfe47c09, type: 3}
    - time: 0.36666667
      value: {fileID: 21300000, guid: b48ca3dd79ba04501b7b9232a7107d12, type: 3}
    - time: 0.4
      value: {fileID: 21300000, guid: f2896faaefe844a9588f723e40854cdc, type: 3}
    - time: 0.43333334
      value: {fileID: 21300000, guid: 061ebee77b33b4c058ac810e65a3cbec, type: 3}
    - time: 0.46666667
      value: {fileID: 21300000, guid: 331d46c5f5b2b4a8d88f0f378c2b11f2, type: 3}
    - time: 0.5
      value: {fileID: 21300000, guid: 153f084165adf4867931a89dbb8a04a1, type: 3}
    attribute: m_Sprite
    path: 
    classID: 212
    script: {fileID: 0}
  m_SampleRate: 30
  m_WrapMode: 0
  m_Bounds:
    m_Center: {x: 0, y: 0, z: 0}
    m_Extent: {x: 0, y: 0, z: 0}
  m_ClipBindingConstant:
    genericBindings:
    - serializedVersion: 2
      path: 0
      attribute: 0
      script: {fileID: 0}
      typeID: 212
      customType: 23
      isPPtrCurve: 1
    pptrCurveMapping:
    - {fileID: 21300000, guid: cf1838eec870347528198e842af4a499, type: 3}
    - {fileID: 21300000, guid: fa03dff45891d445196c41645d140b16, type: 3}
    - {fileID: 21300000, guid: 486defec7bfaf4b54bf7857fc20282bc, type: 3}
    - {fileID: 21300000, guid: 19271073e552d4a848e541d67d0e0d26, type: 3}
    - {fileID: 21300000, guid: a16beabda83b84202b27051f13f7ccb5, type: 3}
    - {fileID: 21300000, guid: f7e89600ac00b487aa6261cda30cf50b, type: 3}
    - {fileID: 21300000, guid: a65454bfcbb1244feb42c4225d70f639, type: 3}
    - {fileID: 21300000, guid: e60aefe451f4b4af1912bc468f6455c9, type: 3}
    - {fileID: 21300000, guid: 3f5fedecf29e746b293e364df00bce60, type: 3}
    - {fileID: 21300000, guid: fd416ae98e8fe4141bfa759b6543dfa3, type: 3}
    - {fileID: 21300000, guid: fb2e0645618e54e23bee09c3dfe47c09, type: 3}
    - {fileID: 21300000, guid: b48ca3dd79ba04501b7b9232a7107d12, type: 3}
    - {fileID: 21300000, guid: f2896faaefe844a9588f723e40854cdc, type: 3}
    - {fileID: 21300000, guid: 061ebee77b33b4c058ac810e65a3cbec, type: 3}
    - {fileID: 21300000, guid: 331d46c5f5b2b4a8d88f0f378c2b11f2, type: 3}
    - {fileID: 21300000, guid: 153f084165adf4867931a89dbb8a04a1, type: 3}
  m_AnimationClipSettings:
    serializedVersion: 2
    m_AdditiveReferencePoseClip: {fileID: 0}
    m_AdditiveReferencePoseTime: 0
    m_StartTime: 0
    m_StopTime: 0.53333336
    m_OrientationOffsetY: 0
    m_Level: 0
    m_CycleOffset: 0
    m_HasAdditiveReferencePose: 0
    m_LoopTime: 1
    m_LoopBlend: 0
    m_LoopBlendOrientation: 0
    m_LoopBlendPositionY: 0
    m_LoopBlendPositionXZ: 0
    m_KeepOriginalOrientation: 0
    m_KeepOriginalPositionY: 1
    m_KeepOriginalPositionXZ: 0
    m_HeightFromFeet: 0
    m_Mirror: 0
  m_EditorCurves: []
  m_EulerEditorCurves: []
  m_HasGenericRootTransform: 0
  m_HasMotionFloatCurves: 0
  m_Events:
  - time: 0.06666667
    functionName: DecreaseLife
    data: 
    objectReferenceParameter: {fileID: 0}
    floatParameter: 0
    intParameter: 0
    messageOptions: 0
